ISO, SPEED LIMIT
AUT,130
DNK,130
FIN,120
FRA,130
ITA,130
NLD,130
ROU,130
SPA,120
SWE,110
BEL,120
BGR,140
HRV,130
CYP,100
CZE,130
EST,110
GRC,130
HUN,130
IRL,120
LVA,100
LTU,130
LUX,130
MLT,80
POL,140
PRT,120
SVK,130
SVN,130
NOR,110
CHE,120
ALB,110
AND,90
BIH,130
BLR,110
FRO,80
GIB,50
IMN,60
RUS,110
ARM,90
AZR,110
GEO,110
ISL,90
LIE,80
MDA,110
MNE,80
MKD,120
SMR,70
SRB,120
TUR,120
UKR,130
VAT,50